<svg xmlns="http://www.w3.org/2000/svg" xmlns:xlink="http://www.w3.org/1999/xlink" width="135" height="40" viewBox="0 0 135 40">
  <defs>
    <linearGradient id="linear-gradient" x1="0.915" y1="-4.408" x2="-0.383" y2="-5.077" gradientUnits="objectBoundingBox">
      <stop offset="0" stop-color="#00a0ff"/>
      <stop offset="0.007" stop-color="#00a1ff"/>
      <stop offset="0.26" stop-color="#00beff"/>
      <stop offset="0.512" stop-color="#00d2ff"/>
      <stop offset="0.76" stop-color="#00dfff"/>
      <stop offset="1" stop-color="#00e3ff"/>
    </linearGradient>
    <linearGradient id="linear-gradient-2" x1="1.076" y1="-15.204" x2="-1.305" y2="-15.204" gradientUnits="objectBoundingBox">
      <stop offset="0" stop-color="#ffe000"/>
      <stop offset="0.409" stop-color="#ffbd00"/>
      <stop offset="0.775" stop-color="orange"/>
      <stop offset="1" stop-color="#ff9c00"/>
    </linearGradient>
    <linearGradient id="linear-gradient-3" x1="0.862" y1="-10.624" x2="-0.501" y2="-12.394" gradientUnits="objectBoundingBox">
      <stop offset="0" stop-color="#ff3a44"/>
      <stop offset="1" stop-color="#c31162"/>
    </linearGradient>
    <linearGradient id="linear-gradient-4" x1="-0.188" y1="-7.903" x2="0.421" y2="-8.693" gradientUnits="objectBoundingBox">
      <stop offset="0" stop-color="#32a071"/>
      <stop offset="0.068" stop-color="#2da771"/>
      <stop offset="0.476" stop-color="#15cf74"/>
      <stop offset="0.801" stop-color="#06e775"/>
      <stop offset="1" stop-color="#00f076"/>
    </linearGradient>
  </defs>
  <g id="Group_228" data-name="Group 228" transform="translate(-185.883 -348.163)">
    <rect id="Rectangle_521" data-name="Rectangle 521" width="135" height="40" rx="5" transform="translate(185.883 348.163)"/>
    <path id="Path_2839" data-name="Path 2839" d="M254.019,369.915a4.253,4.253,0,1,0,4.269,4.253A4.193,4.193,0,0,0,254.019,369.915Zm0,6.831a2.584,2.584,0,1,1,2.4-2.578A2.461,2.461,0,0,1,254.019,376.746Zm-9.314-6.831a4.253,4.253,0,1,0,4.27,4.253A4.192,4.192,0,0,0,244.705,369.915Zm0,6.831a2.584,2.584,0,1,1,2.4-2.578A2.46,2.46,0,0,1,244.705,376.746Zm-11.078-5.526v1.8h4.317a3.766,3.766,0,0,1-.983,2.272,4.42,4.42,0,0,1-3.334,1.321,4.8,4.8,0,0,1,0-9.6,4.6,4.6,0,0,1,3.254,1.289l1.273-1.273a6.3,6.3,0,0,0-4.527-1.82,6.606,6.606,0,1,0,0,13.21,6.039,6.039,0,0,0,4.607-1.852,5.964,5.964,0,0,0,1.563-4.221,5.839,5.839,0,0,0-.1-1.128Zm45.308,1.4a3.953,3.953,0,0,0-3.641-2.707,4.043,4.043,0,0,0-4.012,4.253,4.162,4.162,0,0,0,4.221,4.253,4.234,4.234,0,0,0,3.545-1.884l-1.45-.967a2.43,2.43,0,0,1-2.1,1.176,2.164,2.164,0,0,1-2.062-1.289l5.687-2.352Zm-5.8,1.417a2.333,2.333,0,0,1,2.223-2.481,1.647,1.647,0,0,1,1.579.9Zm-4.624,4.125h1.869v-12.5h-1.869Zm-3.061-7.3h-.064a2.945,2.945,0,0,0-2.239-.951,4.257,4.257,0,0,0,0,8.506,2.9,2.9,0,0,0,2.239-.966h.064v.612c0,1.627-.87,2.5-2.271,2.5a2.353,2.353,0,0,1-2.143-1.514l-1.627.676a4.054,4.054,0,0,0,3.77,2.514c2.191,0,4.044-1.289,4.044-4.431v-7.636H265.45Zm-2.142,5.88a2.587,2.587,0,0,1,0-5.155,2.6,2.6,0,0,1,0,5.155Zm24.381-11.084h-4.471v12.5h1.865v-4.737h2.606a3.888,3.888,0,1,0,0-7.765Zm.048,6.025h-2.654V367.4h2.654a2.143,2.143,0,1,1,0,4.285Zm11.532-1.8a3.5,3.5,0,0,0-3.33,1.914l1.657.692a1.768,1.768,0,0,1,1.7-.917,1.8,1.8,0,0,1,1.962,1.608v.129a4.129,4.129,0,0,0-1.946-.483c-1.785,0-3.6.981-3.6,2.815a2.888,2.888,0,0,0,3.1,2.75,2.634,2.634,0,0,0,2.381-1.222h.064v.965h1.8V373.35C303.064,371.131,301.408,369.892,299.269,369.892Zm-.226,6.852c-.611,0-1.463-.306-1.463-1.062,0-.965,1.061-1.335,1.978-1.335a3.329,3.329,0,0,1,1.7.418A2.263,2.263,0,0,1,299.043,376.744Zm10.583-6.578-2.139,5.42h-.064l-2.22-5.42h-2.01l3.329,7.575-1.9,4.214h1.946l5.131-11.789Zm-16.807,8h1.866v-12.5h-1.866Z" fill="#fff"/>
    <g id="Group_226" data-name="Group 226">
      <path id="Path_2840" data-name="Path 2840" d="M196.318,355.7a2,2,0,0,0-.463,1.4v22.117a2,2,0,0,0,.463,1.4l.074.073,12.389-12.389v-.293l-12.389-12.389Z" fill="url(#linear-gradient)"/>
      <path id="Path_2841" data-name="Path 2841" d="M212.911,372.442l-4.13-4.131v-.293l4.131-4.13.093.053,4.893,2.78c1.4.794,1.4,2.093,0,2.888l-4.893,2.78Z" fill="url(#linear-gradient-2)"/>
      <path id="Path_2842" data-name="Path 2842" d="M213.005,372.388l-4.224-4.223-12.463,12.462a1.626,1.626,0,0,0,2.078.062l14.609-8.3" fill="url(#linear-gradient-3)"/>
      <path id="Path_2843" data-name="Path 2843" d="M213.005,363.941l-14.609-8.3a1.626,1.626,0,0,0-2.078.062l12.463,12.463Z" fill="url(#linear-gradient-4)"/>
      <g id="Group_225" data-name="Group 225">
        <path id="Path_2844" data-name="Path 2844" d="M212.912,372.3,198.4,380.543a1.665,1.665,0,0,1-2,.01h0l-.075.075h0l.074.072h0a1.665,1.665,0,0,0,2-.011l14.609-8.3Z" opacity="0.2" style="isolation: isolate"/>
        <path id="Path_2845" data-name="Path 2845" d="M196.318,380.482a2,2,0,0,1-.463-1.4v.146a2,2,0,0,0,.463,1.4l.075-.075Z" opacity="0.12" style="isolation: isolate"/>
      </g>
      <path id="Path_2846" data-name="Path 2846" d="M217.9,369.462l-4.986,2.833.093.093,4.893-2.78a1.755,1.755,0,0,0,1.048-1.443h0A1.864,1.864,0,0,1,217.9,369.462Z" opacity="0.12" style="isolation: isolate"/>
      <path id="Path_2847" data-name="Path 2847" d="M198.4,355.787l19.5,11.08a1.863,1.863,0,0,1,1.048,1.3h0a1.753,1.753,0,0,0-1.048-1.444l-19.5-11.08c-1.4-.794-2.541-.135-2.541,1.466v.146C195.855,355.652,197,354.993,198.4,355.787Z" fill="#fff" opacity="0.25" style="isolation: isolate"/>
    </g>
    <g id="Group_227" data-name="Group 227">
      <path id="Path_2848" data-name="Path 2848" d="M229.573,361.164H228.8V355.9h-1.675v-.737h4.123v.737h-1.676Z" fill="#fff" stroke="#fff" stroke-miterlimit="10" stroke-width="0.2"/>
      <path id="Path_2849" data-name="Path 2849" d="M235.724,355.9h-2.732v1.9h2.464v.721h-2.464v1.9h2.732v.738h-3.5v-6h3.5Z" fill="#fff" stroke="#fff" stroke-miterlimit="10" stroke-width="0.2"/>
      <path id="Path_2850" data-name="Path 2850" d="M236.93,361.164v-6h.771l2.087,3.653h.033l2.087-3.653h.77v6h-.77V357.6l.033-1.006h-.033l-1.877,3.294h-.453L237.7,356.6h-.033l.033,1.006v3.562Z" fill="#fff" stroke="#fff" stroke-miterlimit="10" stroke-width="0.2"/>
      <path id="Path_2851" data-name="Path 2851" d="M246.14,361.3a2.1,2.1,0,0,1-1.6-.653,2.4,2.4,0,0,1-.616-1.709v-3.771h.771v3.8a1.722,1.722,0,0,0,.373,1.153,1.539,1.539,0,0,0,2.153,0,1.722,1.722,0,0,0,.373-1.153v-3.8h.772v3.771a2.425,2.425,0,0,1-.6,1.713A2.093,2.093,0,0,1,246.14,361.3Z" fill="#fff" stroke="#fff" stroke-miterlimit="10" stroke-width="0.2"/>
      <path id="Path_2852" data-name="Path 2852" d="M254.041,355.164v.033l-2.229,2.573,2.379,3.36v.034h-.945l-1.953-2.8-.922,1.064v1.735H249.6v-6h.771v3.091h.034l2.639-3.091Z" fill="#fff" stroke="#fff" stroke-miterlimit="10" stroke-width="0.2"/>
      <path id="Path_2853" data-name="Path 2853" d="M254.477,361.164l2.262-6h.871l2.263,6h-.854l-.579-1.626h-2.522l-.587,1.626Zm1.7-2.347h1.994l-.981-2.707h-.033Z" fill="#fff" stroke="#fff" stroke-miterlimit="10" stroke-width="0.2"/>
      <path id="Path_2854" data-name="Path 2854" d="M260.745,361.164v-6h.939l2.916,4.667h.033l-.033-1.156v-3.511h.771v6h-.8l-3.05-4.894h-.034l.034,1.156v3.738Z" fill="#fff" stroke="#fff" stroke-miterlimit="10" stroke-width="0.2"/>
      <path id="Path_2855" data-name="Path 2855" d="M268.756,361.164v-6h1.835A2.98,2.98,0,0,1,272.8,356a3.244,3.244,0,0,1,0,4.332,2.984,2.984,0,0,1-2.213.834Zm.77-.738h1.065a2.25,2.25,0,0,0,1.646-.6,2.267,2.267,0,0,0-1.646-3.93h-1.065Z" fill="#fff" stroke="#fff" stroke-miterlimit="10" stroke-width="0.2"/>
      <path id="Path_2856" data-name="Path 2856" d="M274.714,361.164v-6h.77v6Z" fill="#fff" stroke="#fff" stroke-miterlimit="10" stroke-width="0.2"/>
    </g>
  </g>
</svg>
